{
    "_id":"c-15",
    "_parentId":"b-15",
    "_type":"component",
    "_component":"hotgrid",
    "_classes":"",
    "_layout":"full",
    "title":"Adapt Hotgrid",
    "displayTitle":"Adapt Hotgrid",
    "body":"Lorem ipsum dolor sit amet, consectetuer adipiscing elit, sed diam nonummy nibh euismod tincidunt ut laoreet dolore magna aliquam erat volutpat.Ut wisi enim ad minim veniam, quis nostrud exerci tation ullamcorper suscipit lobortis.",
    "instruction":"",
    "_columns":3,
    "_items": [
        {
            "title": "Grid Item 1",
            "body": "This is display text 1. Lorem ipsum dolor sit amet, consectetuer adipiscing elit, sed diam nonummy nibh euismod tincidunt ut laoreet dolore magna aliquam erat volutpat. Ut wisi enim ad minim veniam, quis nostrud exerci tation ullamcorper suscipit lobortis nisl ut aliquip ex ea commodo consequat.",
            "itemAria": "Item 1. Select here to open.",
            "_graphic": {
                "src": "course/en/images/gqcq-2-small.gif",
                "srcHover":"course/en/images/gqcq-1-small.gif",
                "srcVisited":"course/en/images/gqcq-1-small.gif",
                "alt": "",
                "title": ""
            },
             "_itemGraphic": {
                "src": "course/en/images/gqcq-2-small.gif",
                "alt": "alt text"
            }
        },
        {
            "title": "Grid Item 2",
            "body": "This is display text 1. Lorem ipsum dolor sit amet, consectetuer adipiscing elit, sed diam nonummy nibh euismod tincidunt ut laoreet dolore magna aliquam erat volutpat. Ut wisi enim ad minim veniam, quis nostrud exerci tation ullamcorper suscipit lobortis nisl ut aliquip ex ea commodo consequat.",
            "itemAria": "Item 2. Select here to open.",
            "_graphic": {
                "src": "course/en/images/gqcq-2-small.gif",
                "srcHover":"course/en/images/gqcq-1-small.gif",
                "srcVisited":"course/en/images/gqcq-1-small.gif",
                "alt": "",
                "title": ""
            },
             "_itemGraphic": {
                "src": "course/en/images/gqcq-1-small.gif",
                "alt": "alt text"
            }
        },
        {
            "title": "Grid Item 3",
            "body": "This is display text 1. Lorem ipsum dolor sit amet, consectetuer adipiscing elit, sed diam nonummy nibh euismod tincidunt ut laoreet dolore magna aliquam erat volutpat. Ut wisi enim ad minim veniam, quis nostrud exerci tation ullamcorper suscipit lobortis nisl ut aliquip ex ea commodo consequat.",
            "itemAria": "Item 3. Select here to open.",
            "_graphic": {
                "src": "course/en/images/gqcq-2-small.gif",
                "srcHover":"course/en/images/gqcq-1-small.gif",
                "srcVisited":"course/en/images/gqcq-1-small.gif",
                "alt": "",
                "title": ""
            },
             "_itemGraphic": {
                "src": "course/en/images/gqcq-2-small.gif",
                "alt": "alt text"
            }
        },
        {
            "title": "Grid Item 4",
            "body": "This is display text 1. Lorem ipsum dolor sit amet, consectetuer adipiscing elit, sed diam nonummy nibh euismod tincidunt ut laoreet dolore magna aliquam erat volutpat. Ut wisi enim ad minim veniam, quis nostrud exerci tation ullamcorper suscipit lobortis nisl ut aliquip ex ea commodo consequat.",
            "itemAria": "Item 4. Select here to open.",
            "_graphic": {
                "src": "course/en/images/gqcq-2-small.gif",
                "srcHover":"course/en/images/gqcq-1-small.gif",
                "srcVisited":"course/en/images/gqcq-1-small.gif",
                "alt": "",
                "title": ""
            },
             "_itemGraphic": {
                "src": "course/en/images/gqcq-1-small.gif",
                "alt": "alt text"
            }
        },
        {
            "title": "Grid Item 5",
            "body": "This is display text 1. Lorem ipsum dolor sit amet, consectetuer adipiscing elit, sed diam nonummy nibh euismod tincidunt ut laoreet dolore magna aliquam erat volutpat. Ut wisi enim ad minim veniam, quis nostrud exerci tation ullamcorper suscipit lobortis nisl ut aliquip ex ea commodo consequat.",
            "itemAria": "Item 5. Select here to open.",
            "_graphic": {
                "src": "course/en/images/gqcq-2-small.gif",
                "srcHover":"course/en/images/gqcq-1-small.gif",
                "srcVisited":"course/en/images/gqcq-1-small.gif",
                "alt": "",
                "title": ""
            },
             "_itemGraphic": {
                "src": "course/en/images/gqcq-1-small.gif",
                "alt": "alt text"
            }
        },
        {
            "title": "Grid Item 6",
            "body": "This is display text 1. Lorem ipsum dolor sit amet, consectetuer adipiscing elit, sed diam nonummy nibh euismod tincidunt ut laoreet dolore magna aliquam erat volutpat. Ut wisi enim ad minim veniam, quis nostrud exerci tation ullamcorper suscipit lobortis nisl ut aliquip ex ea commodo consequat.",
            "itemAria": "Item 6. Select here to open.",
            "_graphic": {
                "src": "course/en/images/gqcq-2-small.gif",
                "srcHover":"course/en/images/gqcq-1-small.gif",
                "srcVisited":"course/en/images/gqcq-1-small.gif",
                "alt": "",
                "title": ""
            },
             "_itemGraphic": {
                "src": "course/en/images/gqcq-1-small.gif",
                "srcHover":"",
                "srcVisited":"",
                "alt": "alt text"
            }
        }
    ]
}