{
    "_defaultLanguage": "en",
    "_questionWeight": 1,
    "_drawer": {
        "_showEasing": "easeOutQuart",
        "_hideEasing": "easeInQuart",
        "_duration": 400
    },
    "_spoor": {
        "_tracking": {
            "_requireCourseCompleted": false,
            "_requireAssessmentPassed": true,
            "_shouldSubmitScore": true
        },
        "_reporting": {
            "_comment": "Your options here are 'completed', 'passed', 'failed', and 'incomplete'",
            "_onTrackingCriteriaMet": "passed",
            "_onAssessmentFailure": "failed"
        }
    },
    "_inspector": {
        "_isEnabled": false,
        "_tracUrl": ""
    }
}